Spezialisierungspraktikum RNA Biology - Comparison of alternative splicing in two data sets
…
# data.frames containing the highest junction per LSV
HepG2_highest_junction <- readRDS("/Users/melinaklostermann/Documents/projects/students/majiq-course/spezi_scripts_website/example_data/SFPQ_HepG2_highest_junction.rds")
K562_highest_junction <- readRDS("/Users/melinaklostermann/Documents/projects/students/majiq-course/spezi_scripts_website/example_data/SFPQ_K562_highest_junction.rds")

Comparison of the dpsi of the strongest regulated junction

Now we combine both data sets with all junctions per LSV into one data set with double the number of columns. The columns get the ending .HepG2 or .K562 to distingish which values come from which data set.

We then remove junctions that were only detected in one of the two data sets. And again select the highest junction per LSV.

combined_lsvs <- full_join(HepG2, K562, by = c("lsv_id", "junction_coord"), suffix = c(".HepG2", ".K562"))
combined_lsvs

# A tibble: 41,192 × 22
# Rowwise: 
   gene_name.HepG2 seqid.HepG2 strand.HepG2 lsv_id  complex.HepG2 junction_coord
   <chr>           <chr>       <chr>        <chr>   <chr>         <chr>         
 1 CHCHD6          chr3        +            ENSG00… False         126733222-126…
 2 CHCHD6          chr3        +            ENSG00… False         126733222-126…
 3 ZNF181          chr19       +            ENSG00… False         34739268-3473…
 4 ZNF181          chr19       +            ENSG00… False         34739268-3473…
 5 NT5C2           chr10       -            ENSG00… True          103100964-103…
 6 NT5C2           chr10       -            ENSG00… True          103100943-103…
 7 PDCD11          chr10       +            ENSG00… False         103439868-103…
 8 PDCD11          chr10       +            ENSG00… False         103439868-103…
 9 PDCD11          chr10       +            ENSG00… False         103441975-103…
10 PDCD11          chr10       +            ENSG00… False         103441975-103…
# ℹ 41,182 more rows
# ℹ 16 more variables: ctrl_median_psi.HepG2 <dbl>,
#   cond_median_psi.HepG2 <dbl>, dpsi.HepG2 <dbl>,
#   probability_changing.HepG2 <dbl>, class.HepG2 <chr>,
#   unique_juction_id.HepG2 <chr>, gene_name.K562 <chr>, seqid.K562 <chr>,
#   strand.K562 <chr>, complex.K562 <chr>, ctrl_median_psi.K562 <dbl>,
#   cond_median_psi.K562 <dbl>, dpsi.K562 <dbl>, …
…
